{"count": 107133, "next": "https://api.octopus.energy/v1/products/AGILE-18-02-21/electricity-tariffs/E-1R-AGILE-18-02-21-N/standard-unit-rates/?page=2", "previous": null, "results": [{"value_exc_vat": 27.15, "value_inc_vat": 28.5075, "valid_from": "2023-02-10T22:30:00Z", "valid_to": "2023-02-10T23:00:00Z"}, {"value_exc_vat": 28.9, "value_inc_vat": 30.345, "valid_from": "2023-02-10T22:00:00Z", "valid_to": "2023-02-10T22:30:00Z"}, {"value_exc_vat": 29.34, "value_inc_vat": 30.807, "valid_from": "2023-02-10T21:30:00Z", "valid_to": "2023-02-10T22:00:00Z"}, {"value_exc_vat": 31.37, "value_inc_vat": 32.9385, "valid_from": "2023-02-10T21:00:00Z", "valid_to": "2023-02-10T21:30:00Z"}, {"value_exc_vat": 27.89, "value_inc_vat": 29.2845, "valid_from": "2023-02-10T20:30:00Z", "valid_to": "2023-02-10T21:00:00Z"}, {"value_exc_vat": 31.25, "value_inc_vat": 32.8125, "valid_from": "2023-02-10T20:00:00Z", "valid_to": "2023-02-10T20:30:00Z"}, {"value_exc_vat": 28.04, "value_inc_vat": 29.442, "valid_from": "2023-02-10T19:30:00Z", "valid_to": "2023-02-10T20:00:00Z"}, {"value_exc_vat": 32.1553, "value_inc_vat": 33.763065, "valid_from": "2023-02-10T19:00:00Z", "valid_to": "2023-02-10T19:30:00Z"}, {"value_exc_vat": 32.1553, "value_inc_vat": 33.763065, "valid_from": "2023-02-10T18:30:00Z", "valid_to": "2023-02-10T19:00:00Z"}, {"value_exc_vat": 32.1553, "value_inc_vat": 33.763065, "valid_from": "2023-02-10T18:00:00Z", "valid_to": "2023-02-10T18:30:00Z"}, {"value_exc_vat": 32.1553, "value_inc_vat": 33.763065, "valid_from": "2023-02-10T17:30:00Z", "valid_to": "2023-02-10T18:00:00Z"}, {"value_exc_vat": 32.1553, "value_inc_vat": 33.763065, "valid_from": "2023-02-10T17:00:00Z", "valid_to": "2023-02-10T17:30:00Z"}, {"value_exc_vat": 32.1553, "value_inc_vat": 33.763065, "valid_from": "2023-02-10T16:30:00Z", "valid_to": "2023-02-10T17:00:00Z"}, {"value_exc_vat": 32.1553, "value_inc_vat": 33.763065, "valid_from": "2023-02-10T16:00:00Z", "valid_to": "2023-02-10T16:30:00Z"}, {"value_exc_vat": 29.65, "value_inc_vat": 31.1325, "valid_from": "2023-02-10T15:30:00Z", "valid_to": "2023-02-10T16:00:00Z"}, {"value_exc_vat": 26.42, "value_inc_vat": 27.741, "valid_from": "2023-02-10T15:00:00Z", "valid_to": "2023-02-10T15:30:00Z"}, {"value_exc_vat": 25.35, "value_inc_vat": 26.6175, "valid_from": "2023-02-10T14:30:00Z", "valid_to": "2023-02-10T15:00:00Z"}, {"value_exc_vat": 26.21, "value_inc_vat": 27.5205, "valid_from": "2023-02-10T14:00:00Z", "valid_to": "2023-02-10T14:30:00Z"}, {"value_exc_vat": 23.27, "value_inc_vat": 24.4335, "valid_from": "2023-02-10T13:30:00Z", "valid_to": "2023-02-10T14:00:00Z"}, {"value_exc_vat": 23.34, "value_inc_vat": 24.507, "valid_from": "2023-02-10T13:00:00Z", "valid_to": "2023-02-10T13:30:00Z"}, {"value_exc_vat": 24.84, "value_inc_vat": 26.082, "valid_from": "2023-02-10T12:30:00Z", "valid_to": "2023-02-10T13:00:00Z"}, {"value_exc_vat": 26.21, "value_inc_vat": 27.5205, "valid_from": "2023-02-10T12:00:00Z", "valid_to": "2023-02-10T12:30:00Z"}, {"value_exc_vat": 25.87, "value_inc_vat": 27.1635, "valid_from": "2023-02-10T11:30:00Z", "valid_to": "2023-02-10T12:00:00Z"}, {"value_exc_vat": 26.38, "value_inc_vat": 27.699, "valid_from": "2023-02-10T11:00:00Z", "valid_to": "2023-02-10T11:30:00Z"}, {"value_exc_vat": 29.57, "value_inc_vat": 31.0485, "valid_from": "2023-02-10T10:30:00Z", "valid_to": "2023-02-10T11:00:00Z"}, {"value_exc_vat": 31.08, "value_inc_vat": 32.634, "valid_from": "2023-02-10T10:00:00Z", "valid_to": "2023-02-10T10:30:00Z"}, {"value_exc_vat": 31.08, "value_inc_vat": 32.634, "valid_from": "2023-02-10T09:30:00Z", "valid_to": "2023-02-10T10:00:00Z"}, {"value_exc_vat": 32.1553, "value_inc_vat": 33.763065, "valid_from": "2023-02-10T09:00:00Z", "valid_to": "2023-02-10T09:30:00Z"}, {"value_exc_vat": 32.1553, "value_inc_vat": 33.763065, "valid_from": "2023-02-10T08:30:00Z", "valid_to": "2023-02-10T09:00:00Z"}, {"value_exc_vat": 32.1553, "value_inc_vat": 33.763065, "valid_from": "2023-02-10T08:00:00Z", "valid_to": "2023-02-10T08:30:00Z"}, {"value_exc_vat": 32.1553, "value_inc_vat": 33.763065, "valid_from": "2023-02-10T07:30:00Z", "valid_to": "2023-02-10T08:00:00Z"}, {"value_exc_vat": 32.1553, "value_inc_vat": 33.763065, "valid_from": "2023-02-10T07:00:00Z", "valid_to": "2023-02-10T07:30:00Z"}, {"value_exc_vat": 32.1553, "value_inc_vat": 33.763065, "valid_from": "2023-02-10T06:30:00Z", "valid_to": "2023-02-10T07:00:00Z"}, {"value_exc_vat": 32.1553, "value_inc_vat": 33.763065, "valid_from": "2023-02-10T06:00:00Z", "valid_to": "2023-02-10T06:30:00Z"}, {"value_exc_vat": 27.3, "value_inc_vat": 28.665, "valid_from": "2023-02-10T05:30:00Z", "valid_to": "2023-02-10T06:00:00Z"}, {"value_exc_vat": 27.47, "value_inc_vat": 28.8435, "valid_from": "2023-02-10T05:00:00Z", "valid_to": "2023-02-10T05:30:00Z"}, {"value_exc_vat": 24.02, "value_inc_vat": 25.221, "valid_from": "2023-02-10T04:30:00Z", "valid_to": "2023-02-10T05:00:00Z"}, {"value_exc_vat": 26.63, "value_inc_vat": 27.9615, "valid_from": "2023-02-10T04:00:00Z", "valid_to": "2023-02-10T04:30:00Z"}, {"value_exc_vat": 23.1, "value_inc_vat": 24.255, "valid_from": "2023-02-10T03:30:00Z", "valid_to": "2023-02-10T04:00:00Z"}, {"value_exc_vat": 26.12, "value_inc_vat": 27.426, "valid_from": "2023-02-10T03:00:00Z", "valid_to": "2023-02-10T03:30:00Z"}, {"value_exc_vat": 23.74, "value_inc_vat": 24.927, "valid_from": "2023-02-10T02:30:00Z", "valid_to": "2023-02-10T03:00:00Z"}, {"value_exc_vat": 26.86, "value_inc_vat": 28.203, "valid_from": "2023-02-10T02:00:00Z", "valid_to": "2023-02-10T02:30:00Z"}, {"value_exc_vat": 24.13, "value_inc_vat": 25.3365, "valid_from": "2023-02-10T01:30:00Z", "valid_to": "2023-02-10T02:00:00Z"}, {"value_exc_vat": 29.32, "value_inc_vat": 30.786, "valid_from": "2023-02-10T01:00:00Z", "valid_to": "2023-02-10T01:30:00Z"}, {"value_exc_vat": 30.45, "value_inc_vat": 31.9725, "valid_from": "2023-02-10T00:30:00Z", "valid_to": "2023-02-10T01:00:00Z"}, {"value_exc_vat": 25.37, "value_inc_vat": 26.6385, "valid_from": "2023-02-10T00:00:00Z", "valid_to": "2023-02-10T00:30:00Z"}, {"value_exc_vat": 23.1, "value_inc_vat": 24.255, "valid_from": "2023-02-09T23:30:00Z", "valid_to": "2023-02-10T00:00:00Z"}, {"value_exc_vat": 28.56, "value_inc_vat": 29.988, "valid_from": "2023-02-09T23:00:00Z", "valid_to": "2023-02-09T23:30:00Z"}, {"value_exc_vat": 28.98, "value_inc_vat": 30.429, "valid_from": "2023-02-09T22:30:00Z", "valid_to": "2023-02-09T23:00:00Z"}, {"value_exc_vat": 32.1553, "value_inc_vat": 33.763065, "valid_from": "2023-02-09T22:00:00Z", "valid_to": "2023-02-09T22:30:00Z"}, {"value_exc_vat": 29.82, "value_inc_vat": 31.311, "valid_from": "2023-02-09T21:30:00Z", "valid_to": "2023-02-09T22:00:00Z"}, {"value_exc_vat": 32.1553, "value_inc_vat": 33.763065, "valid_from": "2023-02-09T21:00:00Z", "valid_to": "2023-02-09T21:30:00Z"}, {"value_exc_vat": 32.1553, "value_inc_vat": 33.763065, "valid_from": "2023-02-09T20:30:00Z", "valid_to": "2023-02-09T21:00:00Z"}, {"value_exc_vat": 32.1553, "value_inc_vat": 33.763065, "valid_from": "2023-02-09T20:00:00Z", "valid_to": "2023-02-09T20:30:00Z"}, {"value_exc_vat": 32.1553, "value_inc_vat": 33.763065, "valid_from": "2023-02-09T19:30:00Z", "valid_to": "2023-02-09T20:00:00Z"}, {"value_exc_vat": 32.1553, "value_inc_vat": 33.763065, "valid_from": "2023-02-09T19:00:00Z", "valid_to": "2023-02-09T19:30:00Z"}, {"value_exc_vat": 32.1553, "value_inc_vat": 33.763065, "valid_from": "2023-02-09T18:30:00Z", "valid_to": "2023-02-09T19:00:00Z"}, {"value_exc_vat": 32.1553, "value_inc_vat": 33.763065, "valid_from": "2023-02-09T18:00:00Z", "valid_to": "2023-02-09T18:30:00Z"}, {"value_exc_vat": 32.1553, "value_inc_vat": 33.763065, "valid_from": "2023-02-09T17:30:00Z", "valid_to": "2023-02-09T18:00:00Z"}, {"value_exc_vat": 32.1553, "value_inc_vat": 33.763065, "valid_from": "2023-02-09T17:00:00Z", "valid_to": "2023-02-09T17:30:00Z"}, {"value_exc_vat": 32.1553, "value_inc_vat": 33.763065, "valid_from": "2023-02-09T16:30:00Z", "valid_to": "2023-02-09T17:00:00Z"}, {"value_exc_vat": 32.1553, "value_inc_vat": 33.763065, "valid_from": "2023-02-09T16:00:00Z", "valid_to": "2023-02-09T16:30:00Z"}, {"value_exc_vat": 32.1553, "value_inc_vat": 33.763065, "valid_from": "2023-02-09T15:30:00Z", "valid_to": "2023-02-09T16:00:00Z"}, {"value_exc_vat": 28.56, "value_inc_vat": 29.988, "valid_from": "2023-02-09T15:00:00Z", "valid_to": "2023-02-09T15:30:00Z"}, {"value_exc_vat": 27.3, "value_inc_vat": 28.665, "valid_from": "2023-02-09T14:30:00Z", "valid_to": "2023-02-09T15:00:00Z"}, {"value_exc_vat": 28.14, "value_inc_vat": 29.547, "valid_from": "2023-02-09T14:00:00Z", "valid_to": "2023-02-09T14:30:00Z"}, {"value_exc_vat": 26.02, "value_inc_vat": 27.321, "valid_from": "2023-02-09T13:30:00Z", "valid_to": "2023-02-09T14:00:00Z"}, {"value_exc_vat": 26.71, "value_inc_vat": 28.0455, "valid_from": "2023-02-09T13:00:00Z", "valid_to": "2023-02-09T13:30:00Z"}, {"value_exc_vat": 25.12, "value_inc_vat": 26.376, "valid_from": "2023-02-09T12:30:00Z", "valid_to": "2023-02-09T13:00:00Z"}, {"value_exc_vat": 26.71, "value_inc_vat": 28.0455, "valid_from": "2023-02-09T12:00:00Z", "valid_to": "2023-02-09T12:30:00Z"}, {"value_exc_vat": 26.71, "value_inc_vat": 28.0455, "valid_from": "2023-02-09T11:30:00Z", "valid_to": "2023-02-09T12:00:00Z"}, {"value_exc_vat": 26.71, "value_inc_vat": 28.0455, "valid_from": "2023-02-09T11:00:00Z", "valid_to": "2023-02-09T11:30:00Z"}, {"value_exc_vat": 28.56, "value_inc_vat": 29.988, "valid_from": "2023-02-09T10:30:00Z", "valid_to": "2023-02-09T11:00:00Z"}, {"value_exc_vat": 32.1553, "value_inc_vat": 33.763065, "valid_from": "2023-02-09T10:00:00Z", "valid_to": "2023-02-09T10:30:00Z"}, {"value_exc_vat": 32.1553, "value_inc_vat": 33.763065, "valid_from": "2023-02-09T09:30:00Z", "valid_to": "2023-02-09T10:00:00Z"}, {"value_exc_vat": 32.1553, "value_inc_vat": 33.763065, "valid_from": "2023-02-09T09:00:00Z", "valid_to": "2023-02-09T09:30:00Z"}, {"value_exc_vat": 32.1553, "value_inc_vat": 33.763065, "valid_from": "2023-02-09T08:30:00Z", "valid_to": "2023-02-09T09:00:00Z"}, {"value_exc_vat": 32.1553, "value_inc_vat": 33.763065, "valid_from": "2023-02-09T08:00:00Z", "valid_to": "2023-02-09T08:30:00Z"}, {"value_exc_vat": 32.1553, "value_inc_vat": 33.763065, "valid_from": "2023-02-09T07:30:00Z", "valid_to": "2023-02-09T08:00:00Z"}, {"value_exc_vat": 32.1553, "value_inc_vat": 33.763065, "valid_from": "2023-02-09T07:00:00Z", "valid_to": "2023-02-09T07:30:00Z"}, {"value_exc_vat": 32.1553, "value_inc_vat": 33.763065, "valid_from": "2023-02-09T06:30:00Z", "valid_to": "2023-02-09T07:00:00Z"}, {"value_exc_vat": 31.5, "value_inc_vat": 33.075, "valid_from": "2023-02-09T06:00:00Z", "valid_to": "2023-02-09T06:30:00Z"}, {"value_exc_vat": 29.8, "value_inc_vat": 31.29, "valid_from": "2023-02-09T05:30:00Z", "valid_to": "2023-02-09T06:00:00Z"}, {"value_exc_vat": 28.14, "value_inc_vat": 29.547, "valid_from": "2023-02-09T05:00:00Z", "valid_to": "2023-02-09T05:30:00Z"}, {"value_exc_vat": 25.2, "value_inc_vat": 26.46, "valid_from": "2023-02-09T04:30:00Z", "valid_to": "2023-02-09T05:00:00Z"}, {"value_exc_vat": 26.23, "value_inc_vat": 27.5415, "valid_from": "2023-02-09T04:00:00Z", "valid_to": "2023-02-09T04:30:00Z"}, {"value_exc_vat": 25.1, "value_inc_vat": 26.355, "valid_from": "2023-02-09T03:30:00Z", "valid_to": "2023-02-09T04:00:00Z"}, {"value_exc_vat": 26.25, "value_inc_vat": 27.5625, "valid_from": "2023-02-09T03:00:00Z", "valid_to": "2023-02-09T03:30:00Z"}, {"value_exc_vat": 24.99, "value_inc_vat": 26.2395, "valid_from": "2023-02-09T02:30:00Z", "valid_to": "2023-02-09T03:00:00Z"}, {"value_exc_vat": 25.75, "value_inc_vat": 27.0375, "valid_from": "2023-02-09T02:00:00Z", "valid_to": "2023-02-09T02:30:00Z"}, {"value_exc_vat": 25.2, "value_inc_vat": 26.46, "valid_from": "2023-02-09T01:30:00Z", "valid_to": "2023-02-09T02:00:00Z"}, {"value_exc_vat": 29.4, "value_inc_vat": 30.87, "valid_from": "2023-02-09T01:00:00Z", "valid_to": "2023-02-09T01:30:00Z"}, {"value_exc_vat": 30.07, "value_inc_vat": 31.5735, "valid_from": "2023-02-09T00:30:00Z", "valid_to": "2023-02-09T01:00:00Z"}, {"value_exc_vat": 25.41, "value_inc_vat": 26.6805, "valid_from": "2023-02-09T00:00:00Z", "valid_to": "2023-02-09T00:30:00Z"}, {"value_exc_vat": 25.98, "value_inc_vat": 27.279, "valid_from": "2023-02-08T23:30:00Z", "valid_to": "2023-02-09T00:00:00Z"}, {"value_exc_vat": 30.64, "value_inc_vat": 32.172, "valid_from": "2023-02-08T23:00:00Z", "valid_to": "2023-02-08T23:30:00Z"}, {"value_exc_vat": 27.33, "value_inc_vat": 28.6965, "valid_from": "2023-02-08T22:30:00Z", "valid_to": "2023-02-08T23:00:00Z"}, {"value_exc_vat": 29.61, "value_inc_vat": 31.0905, "valid_from": "2023-02-08T22:00:00Z", "valid_to": "2023-02-08T22:30:00Z"}, {"value_exc_vat": 30.62, "value_inc_vat": 32.151, "valid_from": "2023-02-08T21:30:00Z", "valid_to": "2023-02-08T22:00:00Z"}, {"value_exc_vat": 32.1553, "value_inc_vat": 33.763065, "valid_from": "2023-02-08T21:00:00Z", "valid_to": "2023-02-08T21:30:00Z"}]}